  
   { "defaultVariables" : [
        {   "id":0,
            "variableName" : "Pulse",
            "shortName" :"Pulse",
            "ChineseName": "脉搏",
            "defaultValue" :  null,
            "abbreviatedUnitName": "bpm",
            "reminderFrequency ": 0,
            "icon": "ion-heart",
            "variableCategoryName" : "Vital Signs",
            "img":"https://maxcdn.icons8.com/windows10/PNG/96/Programming/system_task-100.png",
            "localImage":"img/pulse.png",
            "show":true
            
        },
        {
            "id":12,
            "variableName": "Blood Pressure",
            "shortName" :"Blood Pressure",
            "ChineseName":"血压",
            "icon": "ion-heart",
            "abbreviatedUnitName": "mmHg",
            "reminderFrequency" : "0",
            "defaultValue" :  "null",
            "variableCategoryName ": "Vital Signs",
            "img":"https://maxcdn.icons8.com/iOS7/PNG/100/Travel/scuba_pressure_gauge-100.png",
            "localImage":"img/bloodpressure.png",
            "show":true
        },
        {
            "id":1,
            "variableName": "Blood Pressure (Systolic - Top Number)",
            "icon": "ion-heart",
            "abbreviatedUnitName": "mmHg",
            "reminderFrequency" : "0",
            "defaultValue" :  "null",
            "variableCategoryName ": "Vital Signs",
            "img":"https://maxcdn.icons8.com/iOS7/PNG/100/Travel/scuba_pressure_gauge-100.png",
            "localImage":"img/bloodpressure.png",
            "show":false
        },
        {
           "id":2,
           "variableName": "Blood Pressure (Diastolic - Bottom Number)",
            "icon": "ion-heart",
            "abbreviatedUnitName": "mmHg",
            "reminderFrequency" : 0,
            "defaultValue" :  null,
            "variableCategoryName ": "Vital Signs",
            "img":"https://maxcdn.icons8.com/iOS7/PNG/100/Travel/scuba_pressure_gauge-100.png",
            "localImage":"img/bloodpressure.png",
            "show":false
        },
        {
            "id":3,
            "variableName": "Core Body Temperature",
            "shortName" :"Body Temp",
            "ChineseName":"体温",
            "icon": "null",
            "abbreviatedUnitName": "C",
            "reminderFrequency" : 0,
            "defaultValue" :  null,
            "variableCategoryName" : "Vital Signs",
            "img":"https://maxcdn.icons8.com/iOS7/PNG/100/Science/temperature-100.png",
            "localImage":"img/Temperature.png",
            "show":true
        },
        {
            "id":4,
            "variableName": "Oxygen Saturation",
            "shortName" :"H2O Oxygen",
            "ChineseName" :"血氧饱和度",
            "icon": null,
            "abbreviatedUnitName": "%",
            "reminderFrequency" : 0,
            "defaultValue" :  null,
            "variableCategoryName" : "Vital Signs",
            "img":"https://maxcdn.icons8.com/iOS7/PNG/100/Science/oxygen-100.png",
            "localImage":"img/Oxygen.png",
            "show":true
        },
          {
            "id":5,
            "variableName": "Height",
            "shortName": "Height",
            "ChineseName": "身高",
            "icon": null,
            "abbreviatedUnitName": "cm",
            "reminderFrequency" : 0,
            "defaultValue ":  null,
            "variableCategoryName" : "Physique",
            "img":"https://maxcdn.icons8.com/iOS7/PNG/100/Science/height-100.png",
            "localImage":"img/Height.png",
            "show":true
        },
        {  
            "id":6,
            "variableName": "Weight",
            "shortName" :"Weight",
            "ChineseName" :"体重",
            "icon": null,
            "abbreviatedUnitName": "kg",
            "reminderFrequency": 0,
            "defaultValue" :  null,
            "variableCategoryName" : "Physique",
            "img":"https://maxcdn.icons8.com/iOS7/PNG/100/Science/weight-100.png",
            "localImage":"img/weight.png",
            "show":true
        },
        {
            "id":7,
            "variableName": "Bowel Movements Count(Poop)",
            "shortName": "Poop",
            "ChineseName": "排便",
            "icon": null,
            "abbreviatedUnitName": "count",
            "reminderFrequency" : 0,
            "defaultValue" :  null,
            "variableCategoryName" : "Symptoms",
            "img":"https://maxcdn.icons8.com/iOS7/PNG/100/Messaging/poo-100.png",
            "localImage":"img/Poo.png",
            "show":true
        },
         {
            "id":8,
            "variableName": "Respiratory Rate",
            "shortName" :"Respiratory Rate",
            "ChineseName" :"呼吸频率",
            "icon": null,
            "abbreviatedUnitName": "/minute",
            "reminderFrequency" : 0,
            "defaultValue ":  null,
            "variableCategoryName" : "Vital Signs",
            "img":"https://maxcdn.icons8.com/iOS7/PNG/100/Healthcare/lungs-100.png",
            "localImage":"img/Lungs.png",
            "show":true
        },
        {
            "id":9,
            "variableName": "Blood Glucose Sugar",
            "shortName": "Blood Sugar",
            "ChineseName": "血糖",
            "icon": null,
            "abbreviatedUnitName": "mg/dL",
            "reminderFrequency" : 0,
            "defaultValue" :  null,
            "variableCategoryName ": "Vital Signs",
            "img":"https://maxcdn.icons8.com/iOS7/PNG/100/Industry/water-100.png",
            "localImage":"img/glucose.png",
            "show":true
        },
        {
            "id":10,
            "variableName": "Mood",
            "shortName": "Mood",
            "ChineseName": "心情",
            "icon": null,
            "abbreviatedUnitName": "count",
            "reminderFrequency" : 0,
            "defaultValue" :  null,
            "variableCategoryName" : "Mood",
            "img":"https://maxcdn.icons8.com/iOS7/PNG/100/Messaging/poo-100.png",
            "localImage":"img/mood.png",
            "show":true
        },
         {
            "id":11,
            "variableName": "Symptoms",
            "shortName": "Symptoms",
            "ChineseName": "症状",
            "icon": null,
            "abbreviatedUnitName": "count",
            "reminderFrequency" : 0,
            "defaultValue" :  null,
            "variableCategoryName" : "Symptoms",
            "img":"https://maxcdn.icons8.com/iOS7/PNG/100/Messaging/poo-100.png",
            "localImage":"img/symptoms.png",
            "show":true
        }
    ]
}
